{
  "pizza": {
    "pizza-sizes": {
      "small": {
        "price": 10.50
      },
      "medium": {
        "price": 13.50
      },
      "large": {
        "price": 16.50
      },
      "extra-large": {
        "price": 1950
      }
    },
    "crust-style": [
      "original",
      "thin",
      "pan",
      "gluten-free",
      "handtoss"
    ],
    "cut": [
      "normal",
      "square"
    ],
    "bake": [
      "normal",
      "well-done"
    ],
    "sauce": [
      "buffalo",
      "bbq",
      "alfredo-sauce",
      "original"
    ],
    "sauce-amount": [
      "normal",
      "light",
      "extra",
      "none"
    ]
  },
  "toppings": {
    "vegan-cheese-amount": {
      "normal": {
        "price": 0
      },
      "light": {
        "price": 0
      },
      "extra": {
        "price": 2.00
      },
      "none": {
        "price": -2.00
      }
    },
    "vegan-protein": {
      "tofu": {
        "price": 1.50
      },
      "tempeh": {
        "price": 2.50
      },
      "jackfruit": {
        "price": 2.50
      }
    },
    "veggies": [
      "mushrooms",
      "tomatoes",
      "pineapple",
      "onions",
      "black olives",
      "spinach",
      "jalapenos",
      "banana peppers",
      "green peppers"
    ]
  },
  "sides": {
    "garlic-knots": {
      "pieces": {
        "8": {
          "price": 6.99
        }
      }
    },
    "garlic-breadsticks": {
      "pieces": {
        "8": {
          "price": 7.19
        }
      }
    },
    "original-breadsticks": {
      "pieces": {
        "8": {
          "price": 6.99
        }
      }
    },
    "cauliflower-wings": {
      "pieces": {
        "6": {
          "price": 6.99
        },
        "8": {
          "price": 8.99
        },
        "16": {
          "price": 14.99
        },
        "24": {
          "price": 19.99
        },
        "32": {
          "price": 27.99
        },
        "50": {
          "price": 44.99
        }
      }
    },
    "garden-salad": {
      "price": 5.99
    }
  },
  "desserts": {
    "cinnamon-roll": {
      "pieces": {
        "8": {
          "price": 6.99
        }
      }
    },
    "cookie": {
      "pieces": {
        "8": {
          "price": 8.99
        }
      }
    },
    "brownie": {
      "pieces": {
        "8": {
          "price": 7.49
        }
      }
    }
  },
  "drinks": {
    "pepsi": {
      "size": {
        "2-liter": {
          "price": 2.99
        },
        "20-oz": {
          "price": 1.99
        }
      }
    },
    "mountain-dew": {
      "size": {
        "2-liter": {
          "price": 2.99
        },
        "20-oz": {
          "price": 1.99
        }
      }
    },
    "canada-dry": {
      "size": {
        "2-liter": {
          "price": 2.99
        },
        "20-oz": {
          "price": 1.99
        }
      }
    },
    "sierra-mist": {
      "size": {
        "2-liter": {
          "price": 2.99
        },
        "20-oz": {
          "price": 1.99
        }
      }
    }
  },
  "extras": {
    "garlic-sauce": {
      "price": 0.75
    },
    "spicy-garlic-sauce": {
      "price": 0.75
    },
    "pizza-sauce": {
      "price": 0.75
    },
    "crushed-red-pepper": {
      "price": 0
    }
  },
  "prices": {
    "toppings": {
      "message": "First two toppings are free",
      "price": 1.25
    }
  }
}















